glx@glx-make-current,Crash
glx@glx-multi-window-single-context,Fail
glx@glx-swap-event_interval,Fail
glx@glx-visuals-depth -pixmap,Crash
glx@glx-visuals-stencil -pixmap,Crash
glx@glx_arb_create_context_es2_profile@invalid opengl es version,Fail
glx@glx_arb_create_context_no_error@no error,Fail
glx@glx_arb_create_context_robustness@invalid reset notification strategy,Fail
glx@glx_ext_import_context@free context,Fail
glx@glx_ext_import_context@get context id,Fail
glx@glx_ext_import_context@get current display,Fail
glx@glx_ext_import_context@import context- multi process,Fail
glx@glx_ext_import_context@import context- single process,Fail
glx@glx_ext_import_context@imported context has same context id,Fail
glx@glx_ext_import_context@make current- multi process,Fail
glx@glx_ext_import_context@make current- single process,Fail
glx@glx_ext_import_context@query context info,Fail
glx@glx_ext_no_config_context@no fbconfig,Fail
spec@!opengl 1.0@gl-1.0-swapbuffers-behavior,Fail
spec@!opengl 1.0@gl-1.0-user-clip-all-planes,Fail
spec@!opengl 1.0@rasterpos,Fail
spec@!opengl 1.0@rasterpos@glsl_vs_gs_linked,Fail
spec@!opengl 1.0@rasterpos@glsl_vs_tes_linked,Fail
spec@!opengl 1.1@read-front,Fail
spec@!opengl 1.1@read-front clear-front-first,Fail
spec@!opengl 1.1@read-front clear-front-first samples=2,Fail
spec@!opengl 1.1@read-front clear-front-first samples=4,Fail
spec@!opengl 1.1@read-front clear-front-first samples=6,Fail
spec@!opengl 1.1@read-front clear-front-first samples=8,Fail
spec@!opengl 1.1@read-front samples=2,Fail
spec@!opengl 1.1@read-front samples=4,Fail
spec@!opengl 1.1@read-front samples=6,Fail
spec@!opengl 1.1@read-front samples=8,Fail
spec@!opengl 1.1@texwrap formats bordercolor-swizzled,Fail
spec@!opengl 1.1@texwrap formats bordercolor-swizzled@GL_R3_G3_B2- swizzled- border color only,Fail
spec@!opengl 1.1@texwrap formats bordercolor-swizzled@GL_RGB10- swizzled- border color only,Fail
spec@!opengl 1.1@texwrap formats bordercolor-swizzled@GL_RGB10_A2- swizzled- border color only,Fail
spec@!opengl 1.1@texwrap formats bordercolor-swizzled@GL_RGB12- swizzled- border color only,Fail
spec@!opengl 1.1@texwrap formats bordercolor-swizzled@GL_RGB16- swizzled- border color only,Fail
spec@!opengl 1.1@texwrap formats bordercolor-swizzled@GL_RGB4- swizzled- border color only,Fail
spec@!opengl 1.1@texwrap formats bordercolor-swizzled@GL_RGB5- swizzled- border color only,Fail
spec@!opengl 1.1@texwrap formats bordercolor-swizzled@GL_RGB5_A1- swizzled- border color only,Fail
spec@!opengl 1.1@texwrap formats bordercolor-swizzled@GL_RGB8- swizzled- border color only,Fail
spec@!opengl 1.1@texwrap formats bordercolor-swizzled@GL_RGBA12- swizzled- border color only,Fail
spec@!opengl 1.1@texwrap formats bordercolor-swizzled@GL_RGBA16- swizzled- border color only,Fail
spec@!opengl 1.1@texwrap formats bordercolor-swizzled@GL_RGBA2- swizzled- border color only,Fail
spec@!opengl 1.1@texwrap formats bordercolor-swizzled@GL_RGBA4- swizzled- border color only,Fail
spec@!opengl 1.1@texwrap formats bordercolor-swizzled@GL_RGBA8- swizzled- border color only,Fail
spec@!opengl 1.1@windowoverlap,Fail
spec@arb_bindless_texture@compiler@images@arith-bound-image.frag,Crash
spec@arb_bindless_texture@compiler@samplers@arith-bound-sampler-texture2d.frag,Crash
spec@arb_es2_compatibility@texwrap formats bordercolor-swizzled,Fail
spec@arb_es2_compatibility@texwrap formats bordercolor-swizzled@GL_RGB565- swizzled- border color only,Fail
spec@arb_gpu_shader_fp64@execution@conversion@frag-conversion-explicit-dmat2-mat2,Fail
spec@arb_gpu_shader_fp64@execution@conversion@frag-conversion-explicit-dmat2x3-mat2x3,Fail
spec@arb_gpu_shader_fp64@execution@conversion@frag-conversion-explicit-dmat2x4-mat2x4,Fail
spec@arb_gpu_shader_fp64@execution@conversion@frag-conversion-explicit-dmat3-mat3,Fail
spec@arb_gpu_shader_fp64@execution@conversion@frag-conversion-explicit-dmat3x2-mat3x2,Fail
spec@arb_gpu_shader_fp64@execution@conversion@frag-conversion-explicit-dmat3x4-mat3x4,Fail
spec@arb_gpu_shader_fp64@execution@conversion@frag-conversion-explicit-dmat4-mat4,Fail
spec@arb_gpu_shader_fp64@execution@conversion@frag-conversion-explicit-dmat4x2-mat4x2,Fail
spec@arb_gpu_shader_fp64@execution@conversion@frag-conversion-explicit-dmat4x3-mat4x3,Fail
spec@arb_gpu_shader_fp64@execution@conversion@frag-conversion-explicit-double-float,Fail
spec@arb_gpu_shader_fp64@execution@conversion@frag-conversion-explicit-dvec2-vec2,Fail
spec@arb_gpu_shader_fp64@execution@conversion@frag-conversion-explicit-dvec3-vec3,Fail
spec@arb_gpu_shader_fp64@execution@conversion@frag-conversion-explicit-dvec4-vec4,Fail
spec@arb_gpu_shader_fp64@execution@conversion@geom-conversion-explicit-dmat2-mat2,Fail
spec@arb_gpu_shader_fp64@execution@conversion@geom-conversion-explicit-dmat2x3-mat2x3,Fail
spec@arb_gpu_shader_fp64@execution@conversion@geom-conversion-explicit-dmat2x4-mat2x4,Fail
spec@arb_gpu_shader_fp64@execution@conversion@geom-conversion-explicit-dmat3-mat3,Fail
spec@arb_gpu_shader_fp64@execution@conversion@geom-conversion-explicit-dmat3x2-mat3x2,Fail
spec@arb_gpu_shader_fp64@execution@conversion@geom-conversion-explicit-dmat3x4-mat3x4,Fail
spec@arb_gpu_shader_fp64@execution@conversion@geom-conversion-explicit-dmat4-mat4,Fail
spec@arb_gpu_shader_fp64@execution@conversion@geom-conversion-explicit-dmat4x2-mat4x2,Fail
spec@arb_gpu_shader_fp64@execution@conversion@geom-conversion-explicit-dmat4x3-mat4x3,Fail
spec@arb_gpu_shader_fp64@execution@conversion@geom-conversion-explicit-double-float,Fail
spec@arb_gpu_shader_fp64@execution@conversion@geom-conversion-explicit-dvec2-vec2,Fail
spec@arb_gpu_shader_fp64@execution@conversion@geom-conversion-explicit-dvec3-vec3,Fail
spec@arb_gpu_shader_fp64@execution@conversion@geom-conversion-explicit-dvec4-vec4,Fail
spec@arb_gpu_shader_fp64@execution@conversion@vert-conversion-explicit-dmat2-mat2,Fail
spec@arb_gpu_shader_fp64@execution@conversion@vert-conversion-explicit-dmat2x3-mat2x3,Fail
spec@arb_gpu_shader_fp64@execution@conversion@vert-conversion-explicit-dmat2x4-mat2x4,Fail
spec@arb_gpu_shader_fp64@execution@conversion@vert-conversion-explicit-dmat3-mat3,Fail
spec@arb_gpu_shader_fp64@execution@conversion@vert-conversion-explicit-dmat3x2-mat3x2,Fail
spec@arb_gpu_shader_fp64@execution@conversion@vert-conversion-explicit-dmat3x4-mat3x4,Fail
spec@arb_gpu_shader_fp64@execution@conversion@vert-conversion-explicit-dmat4-mat4,Fail
spec@arb_gpu_shader_fp64@execution@conversion@vert-conversion-explicit-dmat4x2-mat4x2,Fail
spec@arb_gpu_shader_fp64@execution@conversion@vert-conversion-explicit-dmat4x3-mat4x3,Fail
spec@arb_gpu_shader_fp64@execution@conversion@vert-conversion-explicit-double-float,Fail
spec@arb_gpu_shader_fp64@execution@conversion@vert-conversion-explicit-dvec2-vec2,Fail
spec@arb_gpu_shader_fp64@execution@conversion@vert-conversion-explicit-dvec3-vec3,Fail
spec@arb_gpu_shader_fp64@execution@conversion@vert-conversion-explicit-dvec4-vec4,Fail
spec@arb_program_interface_query@arb_program_interface_query-getprogramresourceindex,Fail
spec@arb_program_interface_query@arb_program_interface_query-getprogramresourceindex@'vs_input2[1][0]' on GL_PROGRAM_INPUT,Fail
spec@arb_query_buffer_object@qbo,Fail
spec@arb_query_buffer_object@qbo@query-GL_TIME_ELAPSED-ASYNC_CPU_READ_BEFORE-GL_INT,Fail
spec@arb_query_buffer_object@qbo@query-GL_TIME_ELAPSED-ASYNC_CPU_READ_BEFORE-GL_UNSIGNED_INT,Fail
spec@arb_query_buffer_object@qbo@query-GL_TIME_ELAPSED-ASYNC_CPU_READ_BEFORE-GL_UNSIGNED_INT64_ARB,Fail
spec@arb_shader_clock@execution@clock,Fail
spec@arb_shader_texture_lod@execution@arb_shader_texture_lod-texgradcube,Fail
spec@arb_shading_language_packing@execution@built-in-functions@fs-packhalf2x16,Fail
spec@arb_shading_language_packing@execution@built-in-functions@vs-packhalf2x16,Fail
spec@arb_tessellation_shader@execution@tcs-tes-levels-out-of-bounds-write,Crash
spec@arb_texture_buffer_object@texture-buffer-size-clamp,Fail
spec@arb_texture_buffer_object@texture-buffer-size-clamp@r8ui_texture_buffer_size_via_image,Fail
spec@arb_texture_buffer_object@texture-buffer-size-clamp@r8ui_texture_buffer_size_via_sampler,Fail
spec@arb_texture_buffer_object@texture-buffer-size-clamp@rg8ui_texture_buffer_size_via_image,Fail
spec@arb_texture_buffer_object@texture-buffer-size-clamp@rg8ui_texture_buffer_size_via_sampler,Fail
spec@arb_texture_buffer_object@texture-buffer-size-clamp@rgba8ui_texture_buffer_size_via_image,Fail
spec@arb_texture_buffer_object@texture-buffer-size-clamp@rgba8ui_texture_buffer_size_via_sampler,Fail
spec@arb_texture_compression@texwrap formats bordercolor-swizzled,Fail
spec@arb_texture_compression@texwrap formats bordercolor-swizzled@GL_COMPRESSED_RGB- swizzled- border color only,Fail
spec@arb_texture_compression@texwrap formats bordercolor-swizzled@GL_COMPRESSED_RGBA- swizzled- border color only,Fail
spec@arb_texture_compression_bptc@texwrap formats bordercolor-swizzled,Fail
spec@arb_texture_compression_bptc@texwrap formats bordercolor-swizzled@GL_COMPRESSED_RGBA_BPTC_UNORM- swizzled- border color only,Fail
spec@arb_texture_compression_bptc@texwrap formats bordercolor-swizzled@GL_COMPRESSED_RGB_BPTC_SIGNED_FLOAT- swizzled- border color only,Fail
spec@arb_texture_compression_bptc@texwrap formats bordercolor-swizzled@GL_COMPRESSED_RGB_BPTC_UNSIGNED_FLOAT- swizzled- border color only,Fail
spec@arb_texture_compression_bptc@texwrap formats bordercolor-swizzled@GL_COMPRESSED_SRGB_ALPHA_BPTC_UNORM- swizzled- border color only,Fail
spec@arb_texture_float@texwrap formats bordercolor-swizzled,Fail
spec@arb_texture_float@texwrap formats bordercolor-swizzled@GL_RGB16F- swizzled- border color only,Fail
spec@arb_texture_float@texwrap formats bordercolor-swizzled@GL_RGB32F- swizzled- border color only,Fail
spec@arb_texture_float@texwrap formats bordercolor-swizzled@GL_RGBA16F- swizzled- border color only,Fail
spec@arb_texture_float@texwrap formats bordercolor-swizzled@GL_RGBA32F- swizzled- border color only,Fail
spec@arb_texture_rg@texwrap formats bordercolor-swizzled,Fail
spec@arb_texture_rg@texwrap formats bordercolor-swizzled@GL_R16- swizzled- border color only,Fail
spec@arb_texture_rg@texwrap formats bordercolor-swizzled@GL_R8- swizzled- border color only,Fail
spec@arb_texture_rg@texwrap formats bordercolor-swizzled@GL_RG16- swizzled- border color only,Fail
spec@arb_texture_rg@texwrap formats bordercolor-swizzled@GL_RG8- swizzled- border color only,Fail
spec@arb_texture_rg@texwrap formats-float bordercolor-swizzled,Fail
spec@arb_texture_rg@texwrap formats-float bordercolor-swizzled@GL_R16F- swizzled- border color only,Fail
spec@arb_texture_rg@texwrap formats-float bordercolor-swizzled@GL_R32F- swizzled- border color only,Fail
spec@arb_texture_rg@texwrap formats-float bordercolor-swizzled@GL_RG16F- swizzled- border color only,Fail
spec@arb_texture_rg@texwrap formats-float bordercolor-swizzled@GL_RG32F- swizzled- border color only,Fail
spec@arb_texture_rg@texwrap formats-int bordercolor-swizzled,Fail
spec@arb_texture_rg@texwrap formats-int bordercolor-swizzled@GL_R16I- swizzled- border color only,Fail
spec@arb_texture_rg@texwrap formats-int bordercolor-swizzled@GL_R16UI- swizzled- border color only,Fail
spec@arb_texture_rg@texwrap formats-int bordercolor-swizzled@GL_R32I- swizzled- border color only,Fail
spec@arb_texture_rg@texwrap formats-int bordercolor-swizzled@GL_R32UI- swizzled- border color only,Fail
spec@arb_texture_rg@texwrap formats-int bordercolor-swizzled@GL_R8I- swizzled- border color only,Fail
spec@arb_texture_rg@texwrap formats-int bordercolor-swizzled@GL_R8UI- swizzled- border color only,Fail
spec@arb_texture_rg@texwrap formats-int bordercolor-swizzled@GL_RG16I- swizzled- border color only,Fail
spec@arb_texture_rg@texwrap formats-int bordercolor-swizzled@GL_RG16UI- swizzled- border color only,Fail
spec@arb_texture_rg@texwrap formats-int bordercolor-swizzled@GL_RG32I- swizzled- border color only,Fail
spec@arb_texture_rg@texwrap formats-int bordercolor-swizzled@GL_RG32UI- swizzled- border color only,Fail
spec@arb_texture_rg@texwrap formats-int bordercolor-swizzled@GL_RG8I- swizzled- border color only,Fail
spec@arb_texture_rg@texwrap formats-int bordercolor-swizzled@GL_RG8UI- swizzled- border color only,Fail
spec@arb_texture_rgb10_a2ui@texwrap formats bordercolor-swizzled,Fail
spec@arb_texture_rgb10_a2ui@texwrap formats bordercolor-swizzled@GL_RGB10_A2UI- swizzled- border color only,Fail
spec@egl_ext_protected_content@conformance,Fail
spec@ext_framebuffer_blit@fbo-blit-check-limits,Fail
spec@ext_image_dma_buf_import@ext_image_dma_buf_import-sample_uyvy,Fail
spec@ext_image_dma_buf_import@ext_image_dma_buf_import-sample_y210,Fail
spec@ext_image_dma_buf_import@ext_image_dma_buf_import-sample_y212,Fail
spec@ext_image_dma_buf_import@ext_image_dma_buf_import-sample_y216,Fail
spec@ext_image_dma_buf_import@ext_image_dma_buf_import-sample_yuyv,Fail
spec@ext_packed_float@texwrap formats bordercolor-swizzled,Fail
spec@ext_packed_float@texwrap formats bordercolor-swizzled@GL_R11F_G11F_B10F- swizzled- border color only,Fail
spec@ext_texture_compression_rgtc@texwrap formats bordercolor-swizzled,Fail
spec@ext_texture_compression_rgtc@texwrap formats bordercolor-swizzled@GL_COMPRESSED_RED_RGTC1- swizzled- border color only,Fail
spec@ext_texture_compression_rgtc@texwrap formats bordercolor-swizzled@GL_COMPRESSED_RG_RGTC2- swizzled- border color only,Fail
spec@ext_texture_compression_rgtc@texwrap formats bordercolor-swizzled@GL_COMPRESSED_SIGNED_RED_RGTC1- swizzled- border color only,Fail
spec@ext_texture_compression_rgtc@texwrap formats bordercolor-swizzled@GL_COMPRESSED_SIGNED_RG_RGTC2- swizzled- border color only,Fail
spec@ext_texture_compression_s3tc@texwrap formats bordercolor-swizzled,Fail
spec@ext_texture_compression_s3tc@texwrap formats bordercolor-swizzled@GL_COMPRESSED_RGBA_S3TC_DXT1_EXT- swizzled- border color only,Fail
spec@ext_texture_compression_s3tc@texwrap formats bordercolor-swizzled@GL_COMPRESSED_RGBA_S3TC_DXT3_EXT- swizzled- border color only,Fail
spec@ext_texture_compression_s3tc@texwrap formats bordercolor-swizzled@GL_COMPRESSED_RGBA_S3TC_DXT5_EXT- swizzled- border color only,Fail
spec@ext_texture_compression_s3tc@texwrap formats bordercolor-swizzled@GL_COMPRESSED_RGB_S3TC_DXT1_EXT- swizzled- border color only,Fail
spec@ext_texture_integer@texwrap formats bordercolor-swizzled,Fail
spec@ext_texture_integer@texwrap formats bordercolor-swizzled@GL_RGB16I- swizzled- border color only,Fail
spec@ext_texture_integer@texwrap formats bordercolor-swizzled@GL_RGB16UI- swizzled- border color only,Fail
spec@ext_texture_integer@texwrap formats bordercolor-swizzled@GL_RGB32I- swizzled- border color only,Fail
spec@ext_texture_integer@texwrap formats bordercolor-swizzled@GL_RGB32UI- swizzled- border color only,Fail
spec@ext_texture_integer@texwrap formats bordercolor-swizzled@GL_RGB8I- swizzled- border color only,Fail
spec@ext_texture_integer@texwrap formats bordercolor-swizzled@GL_RGB8UI- swizzled- border color only,Fail
spec@ext_texture_integer@texwrap formats bordercolor-swizzled@GL_RGBA16I- swizzled- border color only,Fail
spec@ext_texture_integer@texwrap formats bordercolor-swizzled@GL_RGBA16UI- swizzled- border color only,Fail
spec@ext_texture_integer@texwrap formats bordercolor-swizzled@GL_RGBA32I- swizzled- border color only,Fail
spec@ext_texture_integer@texwrap formats bordercolor-swizzled@GL_RGBA32UI- swizzled- border color only,Fail
spec@ext_texture_integer@texwrap formats bordercolor-swizzled@GL_RGBA8I- swizzled- border color only,Fail
spec@ext_texture_integer@texwrap formats bordercolor-swizzled@GL_RGBA8UI- swizzled- border color only,Fail
spec@ext_texture_shared_exponent@texwrap formats bordercolor-swizzled,Fail
spec@ext_texture_shared_exponent@texwrap formats bordercolor-swizzled@GL_RGB9_E5- swizzled- border color only,Fail
spec@ext_texture_snorm@texwrap formats bordercolor-swizzled,Fail
spec@ext_texture_snorm@texwrap formats bordercolor-swizzled@GL_R16_SNORM- swizzled- border color only,Fail
spec@ext_texture_snorm@texwrap formats bordercolor-swizzled@GL_R8_SNORM- swizzled- border color only,Fail
spec@ext_texture_snorm@texwrap formats bordercolor-swizzled@GL_RG16_SNORM- swizzled- border color only,Fail
spec@ext_texture_snorm@texwrap formats bordercolor-swizzled@GL_RG8_SNORM- swizzled- border color only,Fail
spec@ext_texture_snorm@texwrap formats bordercolor-swizzled@GL_RGB16_SNORM- swizzled- border color only,Fail
spec@ext_texture_snorm@texwrap formats bordercolor-swizzled@GL_RGB8_SNORM- swizzled- border color only,Fail
spec@ext_texture_snorm@texwrap formats bordercolor-swizzled@GL_RGBA16_SNORM- swizzled- border color only,Fail
spec@ext_texture_snorm@texwrap formats bordercolor-swizzled@GL_RGBA8_SNORM- swizzled- border color only,Fail
spec@ext_texture_srgb@texwrap formats bordercolor-swizzled,Fail
spec@ext_texture_srgb@texwrap formats bordercolor-swizzled@GL_SRGB8- swizzled- border color only,Fail
spec@ext_texture_srgb@texwrap formats bordercolor-swizzled@GL_SRGB8_ALPHA8- swizzled- border color only,Fail
spec@ext_texture_srgb@texwrap formats-s3tc bordercolor-swizzled,Fail
spec@ext_texture_srgb@texwrap formats-s3tc bordercolor-swizzled@GL_COMPRESSED_SRGB- swizzled- border color only,Fail
spec@ext_texture_srgb@texwrap formats-s3tc bordercolor-swizzled@GL_COMPRESSED_SRGB_ALPHA- swizzled- border color only,Fail
spec@ext_texture_srgb@texwrap formats-s3tc bordercolor-swizzled@GL_COMPRESSED_SRGB_ALPHA_S3TC_DXT1_EXT- swizzled- border color only,Fail
spec@ext_texture_srgb@texwrap formats-s3tc bordercolor-swizzled@GL_COMPRESSED_SRGB_ALPHA_S3TC_DXT3_EXT- swizzled- border color only,Fail
spec@ext_texture_srgb@texwrap formats-s3tc bordercolor-swizzled@GL_COMPRESSED_SRGB_ALPHA_S3TC_DXT5_EXT- swizzled- border color only,Fail
spec@ext_texture_srgb@texwrap formats-s3tc bordercolor-swizzled@GL_COMPRESSED_SRGB_S3TC_DXT1_EXT- swizzled- border color only,Fail
spec@glsl-1.20@compiler@invalid-vec4-array-to-vec3-array-conversion.vert,Fail
spec@glsl-1.30@execution@glsl-fs-continue-in-switch-in-do-while,Fail
spec@glsl-1.30@execution@glsl-vs-continue-in-switch-in-do-while,Fail
spec@glsl-1.50@execution@geometry@tri-strip-ordering-with-prim-restart gl_triangle_strip_adjacency ffs,Fail
spec@glsl-1.50@execution@geometry@tri-strip-ordering-with-prim-restart gl_triangle_strip_adjacency other,Fail
spec@glsl-4.00@execution@conversion@frag-conversion-explicit-dmat2-mat2,Fail
spec@glsl-4.00@execution@conversion@frag-conversion-explicit-dmat2x3-mat2x3,Fail
spec@glsl-4.00@execution@conversion@frag-conversion-explicit-dmat2x4-mat2x4,Fail
spec@glsl-4.00@execution@conversion@frag-conversion-explicit-dmat3-mat3,Fail
spec@glsl-4.00@execution@conversion@frag-conversion-explicit-dmat3x2-mat3x2,Fail
spec@glsl-4.00@execution@conversion@frag-conversion-explicit-dmat3x4-mat3x4,Fail
spec@glsl-4.00@execution@conversion@frag-conversion-explicit-dmat4-mat4,Fail
spec@glsl-4.00@execution@conversion@frag-conversion-explicit-dmat4x2-mat4x2,Fail
spec@glsl-4.00@execution@conversion@frag-conversion-explicit-dmat4x3-mat4x3,Fail
spec@glsl-4.00@execution@conversion@frag-conversion-explicit-double-float,Fail
spec@glsl-4.00@execution@conversion@frag-conversion-explicit-dvec2-vec2,Fail
spec@glsl-4.00@execution@conversion@frag-conversion-explicit-dvec3-vec3,Fail
spec@glsl-4.00@execution@conversion@frag-conversion-explicit-dvec4-vec4,Fail
spec@glsl-4.00@execution@conversion@geom-conversion-explicit-dmat2-mat2,Fail
spec@glsl-4.00@execution@conversion@geom-conversion-explicit-dmat2x3-mat2x3,Fail
spec@glsl-4.00@execution@conversion@geom-conversion-explicit-dmat2x4-mat2x4,Fail
spec@glsl-4.00@execution@conversion@geom-conversion-explicit-dmat3-mat3,Fail
spec@glsl-4.00@execution@conversion@geom-conversion-explicit-dmat3x2-mat3x2,Fail
spec@glsl-4.00@execution@conversion@geom-conversion-explicit-dmat3x4-mat3x4,Fail
spec@glsl-4.00@execution@conversion@geom-conversion-explicit-dmat4-mat4,Fail
spec@glsl-4.00@execution@conversion@geom-conversion-explicit-dmat4x2-mat4x2,Fail
spec@glsl-4.00@execution@conversion@geom-conversion-explicit-dmat4x3-mat4x3,Fail
spec@glsl-4.00@execution@conversion@geom-conversion-explicit-double-float,Fail
spec@glsl-4.00@execution@conversion@geom-conversion-explicit-dvec2-vec2,Fail
spec@glsl-4.00@execution@conversion@geom-conversion-explicit-dvec3-vec3,Fail
spec@glsl-4.00@execution@conversion@geom-conversion-explicit-dvec4-vec4,Fail
spec@glsl-4.00@execution@conversion@vert-conversion-explicit-dmat2-mat2,Fail
spec@glsl-4.00@execution@conversion@vert-conversion-explicit-dmat2x3-mat2x3,Fail
spec@glsl-4.00@execution@conversion@vert-conversion-explicit-dmat2x4-mat2x4,Fail
spec@glsl-4.00@execution@conversion@vert-conversion-explicit-dmat3-mat3,Fail
spec@glsl-4.00@execution@conversion@vert-conversion-explicit-dmat3x2-mat3x2,Fail
spec@glsl-4.00@execution@conversion@vert-conversion-explicit-dmat3x4-mat3x4,Fail
spec@glsl-4.00@execution@conversion@vert-conversion-explicit-dmat4-mat4,Fail
spec@glsl-4.00@execution@conversion@vert-conversion-explicit-dmat4x2-mat4x2,Fail
spec@glsl-4.00@execution@conversion@vert-conversion-explicit-dmat4x3-mat4x3,Fail
spec@glsl-4.00@execution@conversion@vert-conversion-explicit-double-float,Fail
spec@glsl-4.00@execution@conversion@vert-conversion-explicit-dvec2-vec2,Fail
spec@glsl-4.00@execution@conversion@vert-conversion-explicit-dvec3-vec3,Fail
spec@glsl-4.00@execution@conversion@vert-conversion-explicit-dvec4-vec4,Fail
spec@glsl-es-3.00@execution@built-in-functions@fs-packhalf2x16,Fail
spec@glsl-es-3.00@execution@built-in-functions@vs-packhalf2x16,Fail
spec@khr_texture_compression_astc@miptree-gl srgb-fp,Fail
spec@khr_texture_compression_astc@miptree-gl srgb-fp@sRGB decode full precision,Fail
spec@khr_texture_compression_astc@miptree-gles srgb-fp,Fail
spec@khr_texture_compression_astc@miptree-gles srgb-fp@sRGB decode full precision,Fail
spec@khr_texture_compression_astc@sliced-3d-miptree-gl srgb-fp,Fail
spec@khr_texture_compression_astc@sliced-3d-miptree-gl srgb-fp@sRGB decode full precision,Fail
spec@khr_texture_compression_astc@sliced-3d-miptree-gles srgb-fp,Fail
spec@khr_texture_compression_astc@sliced-3d-miptree-gles srgb-fp@sRGB decode full precision,Fail
spec@oes_egl_image_external_essl3@oes_egl_image_external_essl3,Fail
spec@oes_egl_image_external_essl3@oes_egl_image_external_essl3@oes_egl_image_external_essl3_imageLoad,Fail
spec@oes_egl_image_external_essl3@oes_egl_image_external_essl3@oes_egl_image_external_essl3_imageStore,Fail
spec@oes_shader_io_blocks@compiler@layout-location-aliasing.vert,Fail
wgl@wgl-multi-context-single-window,Fail
wgl@wgl-multi-window-single-context,Fail
wgl@wgl-sanity,Fail
